{
    "total": 2756,
    "page": 1,
    "per_page": 3,
    "paging": {
        "next": "/videos?query=kodi&fields=uri%2Cresource_key%2Cname%2Cdescription%2Ctype%2Cduration%2Ccreated_time%2Clocation%2Cbio%2Cstats%2Cuser%2Caccount%2Crelease_time%2Cpictures%2Cmetadata%2Cplay&sort=relevant&per_page=3&page=2",
        "previous": null,
        "first": "/videos?query=kodi&fields=uri%2Cresource_key%2Cname%2Cdescription%2Ctype%2Cduration%2Ccreated_time%2Clocation%2Cbio%2Cstats%2Cuser%2Caccount%2Crelease_time%2Cpictures%2Cmetadata%2Cplay&sort=relevant&per_page=3&page=1",
        "last": "/videos?query=kodi&fields=uri%2Cresource_key%2Cname%2Cdescription%2Ctype%2Cduration%2Ccreated_time%2Clocation%2Cbio%2Cstats%2Cuser%2Caccount%2Crelease_time%2Cpictures%2Cmetadata%2Cplay&sort=relevant&per_page=3&page=919"
    },
    "data": [
        {
            "uri": "/videos/13101116",
            "name": "kodi James",
            "description": "Kodi is Great kid who works hard to learn and have fun every day of his life, I have to say making this video has been the most fun filming and editing i have ever had! kodi I hope you keep it up and go far in life!",
            "type": "video",
            "duration": 156,
            "created_time": "2010-07-05T16:31:50+00:00",
            "release_time": "2010-07-05T16:31:50+00:00",
            "pictures": {
                "uri": "/videos/13101116/pictures/74666133",
                "active": true,
                "type": "custom",
                "sizes": [
                    {
                        "width": 100,
                        "height": 75,
                        "link": "https://i.vimeocdn.com/video/74666133_100x75.jpg?r=pad",
                        "link_with_play_button": "https://i.vimeocdn.com/filter/overlay?src0=https%3A%2F%2Fi.vimeocdn.com%2Fvideo%2F74666133_100x75.jpg&src1=http%3A%2F%2Ff.vimeocdn.com%2Fp%2Fimages%2Fcrawler_play.png"
                    },
                    {
                        "width": 200,
                        "height": 150,
                        "link": "https://i.vimeocdn.com/video/74666133_200x150.jpg?r=pad",
                        "link_with_play_button": "https://i.vimeocdn.com/filter/overlay?src0=https%3A%2F%2Fi.vimeocdn.com%2Fvideo%2F74666133_200x150.jpg&src1=http%3A%2F%2Ff.vimeocdn.com%2Fp%2Fimages%2Fcrawler_play.png"
                    },
                    {
                        "width": 295,
                        "height": 166,
                        "link": "https://i.vimeocdn.com/video/74666133_295x166.jpg?r=pad",
                        "link_with_play_button": "https://i.vimeocdn.com/filter/overlay?src0=https%3A%2F%2Fi.vimeocdn.com%2Fvideo%2F74666133_295x166.jpg&src1=http%3A%2F%2Ff.vimeocdn.com%2Fp%2Fimages%2Fcrawler_play.png"
                    },
                    {
                        "width": 640,
                        "height": 360,
                        "link": "https://i.vimeocdn.com/video/74666133_640x360.jpg?r=pad",
                        "link_with_play_button": "https://i.vimeocdn.com/filter/overlay?src0=https%3A%2F%2Fi.vimeocdn.com%2Fvideo%2F74666133_640x360.jpg&src1=http%3A%2F%2Ff.vimeocdn.com%2Fp%2Fimages%2Fcrawler_play.png"
                    },
                    {
                        "width": 1280,
                        "height": 720,
                        "link": "https://i.vimeocdn.com/video/74666133_1280x720.jpg?r=pad",
                        "link_with_play_button": "https://i.vimeocdn.com/filter/overlay?src0=https%3A%2F%2Fi.vimeocdn.com%2Fvideo%2F74666133_1280x720.jpg&src1=http%3A%2F%2Ff.vimeocdn.com%2Fp%2Fimages%2Fcrawler_play.png"
                    },
                    {
                        "width": 1920,
                        "height": 1080,
                        "link": "https://i.vimeocdn.com/video/74666133_1920x1080.jpg?r=pad",
                        "link_with_play_button": "https://i.vimeocdn.com/filter/overlay?src0=https%3A%2F%2Fi.vimeocdn.com%2Fvideo%2F74666133_1920x1080.jpg&src1=http%3A%2F%2Ff.vimeocdn.com%2Fp%2Fimages%2Fcrawler_play.png"
                    },
                    {
                        "width": 640,
                        "height": 360,
                        "link": "https://i.vimeocdn.com/video/74666133_640x360.jpg?r=pad",
                        "link_with_play_button": "https://i.vimeocdn.com/filter/overlay?src0=https%3A%2F%2Fi.vimeocdn.com%2Fvideo%2F74666133_640x360.jpg&src1=http%3A%2F%2Ff.vimeocdn.com%2Fp%2Fimages%2Fcrawler_play.png"
                    },
                    {
                        "width": 960,
                        "height": 540,
                        "link": "https://i.vimeocdn.com/video/74666133_960x540.jpg?r=pad",
                        "link_with_play_button": "https://i.vimeocdn.com/filter/overlay?src0=https%3A%2F%2Fi.vimeocdn.com%2Fvideo%2F74666133_960x540.jpg&src1=http%3A%2F%2Ff.vimeocdn.com%2Fp%2Fimages%2Fcrawler_play.png"
                    },
                    {
                        "width": 1280,
                        "height": 720,
                        "link": "https://i.vimeocdn.com/video/74666133_1280x720.jpg?r=pad",
                        "link_with_play_button": "https://i.vimeocdn.com/filter/overlay?src0=https%3A%2F%2Fi.vimeocdn.com%2Fvideo%2F74666133_1280x720.jpg&src1=http%3A%2F%2Ff.vimeocdn.com%2Fp%2Fimages%2Fcrawler_play.png"
                    },
                    {
                        "width": 1920,
                        "height": 1080,
                        "link": "https://i.vimeocdn.com/video/74666133_1920x1080.jpg?r=pad",
                        "link_with_play_button": "https://i.vimeocdn.com/filter/overlay?src0=https%3A%2F%2Fi.vimeocdn.com%2Fvideo%2F74666133_1920x1080.jpg&src1=http%3A%2F%2Ff.vimeocdn.com%2Fp%2Fimages%2Fcrawler_play.png"
                    }
                ],
                "resource_key": "e3953013b86109eef65c537f7b759fc84dda99e7"
            },
            "stats": {
                "plays": null
            },
            "metadata": {
                "connections": {
                    "comments": {
                        "uri": "/videos/13101116/comments",
                        "options": [
                            "GET"
                        ],
                        "total": 5
                    },
                    "credits": {
                        "uri": "/videos/13101116/credits",
                        "options": [
                            "GET",
                            "POST"
                        ],
                        "total": 1
                    },
                    "likes": {
                        "uri": "/videos/13101116/likes",
                        "options": [
                            "GET"
                        ],
                        "total": 5
                    },
                    "pictures": {
                        "uri": "/videos/13101116/pictures",
                        "options": [
                            "GET",
                            "POST"
                        ],
                        "total": 1
                    },
                    "texttracks": {
                        "uri": "/videos/13101116/texttracks",
                        "options": [
                            "GET",
                            "POST"
                        ],
                        "total": 0
                    },
                    "related": {
                        "uri": "/videos?query=kodi&fields=uri,resource_key,name,description,type,duration,created_time,location,bio,stats,user,account,release_time,pictures,metadata,play&sort=relevant&per_page=3&offset=1",
                        "options": [
                            "GET"
                        ]
                    },
                    "recommendations": {
                        "uri": "/videos/13101116/recommendations",
                        "options": [
                            "GET"
                        ]
                    }
                },
                "interactions": {
                    "report": {
                        "uri": "/videos/13101116/report",
                        "options": [
                            "POST"
                        ],
                        "reason": [
                            "pornographic",
                            "harassment",
                            "advertisement",
                            "ripoff",
                            "incorrect rating",
                            "spam",
                            "causes harm"
                        ]
                    }
                }
            },
            "user": {
                "uri": "/users/1871574",
                "name": "Foo User",
                "link": "https://vimeo.com/user1871574",
                "location": "CA",
                "bio": null,
                "short_bio": null,
                "created_time": "2009-06-08T04:08:11+00:00",
                "pictures": {
                    "uri": "/users/1871574/pictures/3197547",
                    "active": true,
                    "type": "custom",
                    "sizes": [
                        {
                            "width": 30,
                            "height": 30,
                            "link": "https://i.vimeocdn.com/portrait/3197547_30x30"
                        },
                        {
                            "width": 75,
                            "height": 75,
                            "link": "https://i.vimeocdn.com/portrait/3197547_75x75"
                        },
                        {
                            "width": 100,
                            "height": 100,
                            "link": "https://i.vimeocdn.com/portrait/3197547_100x100"
                        },
                        {
                            "width": 300,
                            "height": 300,
                            "link": "https://i.vimeocdn.com/portrait/3197547_300x300"
                        },
                        {
                            "width": 72,
                            "height": 72,
                            "link": "https://i.vimeocdn.com/portrait/3197547_72x72"
                        },
                        {
                            "width": 144,
                            "height": 144,
                            "link": "https://i.vimeocdn.com/portrait/3197547_144x144"
                        },
                        {
                            "width": 216,
                            "height": 216,
                            "link": "https://i.vimeocdn.com/portrait/3197547_216x216"
                        },
                        {
                            "width": 288,
                            "height": 288,
                            "link": "https://i.vimeocdn.com/portrait/3197547_288x288"
                        },
                        {
                            "width": 360,
                            "height": 360,
                            "link": "https://i.vimeocdn.com/portrait/3197547_360x360"
                        }
                    ],
                    "resource_key": "ce2398cc5766bb9a6b1b88e9dda9bd3316bc57e9"
                },
                "websites": [],
                "metadata": {
                    "connections": {
                        "albums": {
                            "uri": "/users/1871574/albums",
                            "options": [
                                "GET"
                            ],
                            "total": 0
                        },
                        "appearances": {
                            "uri": "/users/1871574/appearances",
                            "options": [
                                "GET"
                            ],
                            "total": 0
                        },
                        "channels": {
                            "uri": "/users/1871574/channels",
                            "options": [
                                "GET"
                            ],
                            "total": 0
                        },
                        "feed": {
                            "uri": "/users/1871574/feed",
                            "options": [
                                "GET"
                            ]
                        },
                        "followers": {
                            "uri": "/users/1871574/followers",
                            "options": [
                                "GET"
                            ],
                            "total": 15
                        },
                        "following": {
                            "uri": "/users/1871574/following",
                            "options": [
                                "GET"
                            ],
                            "total": 11
                        },
                        "groups": {
                            "uri": "/users/1871574/groups",
                            "options": [
                                "GET"
                            ],
                            "total": 0
                        },
                        "likes": {
                            "uri": "/users/1871574/likes",
                            "options": [
                                "GET"
                            ],
                            "total": 266
                        },
                        "membership": {
                            "uri": "/users/1871574/membership/",
                            "options": [
                                "PATCH"
                            ]
                        },
                        "moderated_channels": {
                            "uri": "/users/1871574/channels?filter=moderated",
                            "options": [
                                "GET"
                            ],
                            "total": 0
                        },
                        "portfolios": {
                            "uri": "/users/1871574/portfolios",
                            "options": [
                                "GET"
                            ],
                            "total": 0
                        },
                        "videos": {
                            "uri": "/users/1871574/videos",
                            "options": [
                                "GET"
                            ],
                            "total": 13
                        },
                        "shared": {
                            "uri": "/users/1871574/shared/videos",
                            "options": [
                                "GET"
                            ],
                            "total": 90
                        },
                        "pictures": {
                            "uri": "/users/1871574/pictures",
                            "options": [
                                "GET",
                                "POST"
                            ],
                            "total": 1
                        }
                    }
                },
                "resource_key": "055382195a98e43c06cbf9ab52305e503d7403d8",
                "account": "basic"
            },
            "resource_key": "5c0a3a2bfb8f17867cc1b6bd296a70fcca900f60"
        }
    ]
}
