{
    "total": 3740,
    "page": 1,
    "per_page": 3,
    "paging": {
        "next": "/users?page=2&per_page=3&query=sport",
        "previous": null,
        "first": "/users?page=1&per_page=3&query=sport",
        "last": "/users?page=1247&per_page=3&query=sport"
    },
    "data": [
        {
            "uri": "/users/3255081",
            "name": "Petzl-sport",
            "link": "https://vimeo.com/petzl",
            "location": "France",
            "bio": "Petzl invents products and provides solutions that allow sports enthusiasts to access the most inaccessible places, both day and night. We manufacture gear for sport climbing, ice climbing, mountaineering, caving, via ferrata, multi-picth climbing, canyonning, etc. We also make headlamps for trail running, climbing, sailing, fishing or any pursuit that requires hands-free lighting.",
            "created_time": "2010-02-25T09:29:42+00:00",
            "pictures": {
                "uri": "/users/3255081/pictures/377115",
                "active": true,
                "type": "custom",
                "sizes": [
                    {
                        "width": 30,
                        "height": 30,
                        "link": "https://i.vimeocdn.com/portrait/377115_30x30"
                    },
                    {
                        "width": 75,
                        "height": 75,
                        "link": "https://i.vimeocdn.com/portrait/377115_75x75"
                    },
                    {
                        "width": 100,
                        "height": 100,
                        "link": "https://i.vimeocdn.com/portrait/377115_100x100"
                    },
                    {
                        "width": 300,
                        "height": 300,
                        "link": "https://i.vimeocdn.com/portrait/377115_300x300"
                    },
                    {
                        "width": 72,
                        "height": 72,
                        "link": "https://i.vimeocdn.com/portrait/377115_72x72"
                    },
                    {
                        "width": 144,
                        "height": 144,
                        "link": "https://i.vimeocdn.com/portrait/377115_144x144"
                    },
                    {
                        "width": 216,
                        "height": 216,
                        "link": "https://i.vimeocdn.com/portrait/377115_216x216"
                    },
                    {
                        "width": 288,
                        "height": 288,
                        "link": "https://i.vimeocdn.com/portrait/377115_288x288"
                    },
                    {
                        "width": 360,
                        "height": 360,
                        "link": "https://i.vimeocdn.com/portrait/377115_360x360"
                    }
                ],
                "resource_key": "584ffdddac92d0fad5f0dab26224942b68c37c0c"
            },
            "websites": [
                {
                    "name": "http://www.petzl.com",
                    "link": "http://www.petzl.com",
                    "description": null
                },
                {
                    "name": "Facebook",
                    "link": "www.facebook.com/Petzl",
                    "description": null
                },
                {
                    "name": "Twitter",
                    "link": "twitter.com/petzl",
                    "description": null
                }
            ],
            "metadata": {
                "connections": {
                    "albums": {
                        "uri": "/users/3255081/albums",
                        "options": [
                            "GET"
                        ],
                        "total": 6
                    },
                    "appearances": {
                        "uri": "/users/3255081/appearances",
                        "options": [
                            "GET"
                        ],
                        "total": 14
                    },
                    "channels": {
                        "uri": "/users/3255081/channels",
                        "options": [
                            "GET"
                        ],
                        "total": 0
                    },
                    "feed": {
                        "uri": "/users/3255081/feed",
                        "options": [
                            "GET"
                        ]
                    },
                    "followers": {
                        "uri": "/users/3255081/followers",
                        "options": [
                            "GET"
                        ],
                        "total": 4649
                    },
                    "following": {
                        "uri": "/users/3255081/following",
                        "options": [
                            "GET"
                        ],
                        "total": 4
                    },
                    "groups": {
                        "uri": "/users/3255081/groups",
                        "options": [
                            "GET"
                        ],
                        "total": 0
                    },
                    "likes": {
                        "uri": "/users/3255081/likes",
                        "options": [
                            "GET"
                        ],
                        "total": 3
                    },
                    "membership": {
                        "uri": "/users/3255081/membership/",
                        "options": [
                            "PATCH"
                        ]
                    },
                    "moderated_channels": {
                        "uri": "/users/3255081/channels?filter=moderated",
                        "options": [
                            "GET"
                        ],
                        "total": 0
                    },
                    "portfolios": {
                        "uri": "/users/3255081/portfolios",
                        "options": [
                            "GET"
                        ],
                        "total": 0
                    },
                    "videos": {
                        "uri": "/users/3255081/videos",
                        "options": [
                            "GET"
                        ],
                        "total": 151
                    },
                    "shared": {
                        "uri": "/users/3255081/shared/videos",
                        "options": [
                            "GET"
                        ],
                        "total": 53
                    },
                    "pictures": {
                        "uri": "/users/3255081/pictures",
                        "options": [
                            "GET",
                            "POST"
                        ],
                        "total": 1
                    }
                },
                "interactions": {
                    "follow": {
                        "added": false,
                        "added_time": null,
                        "uri": "/users/3400243/following/3255081",
                        "options": [
                            "GET",
                            "PUT",
                            "DELETE"
                        ]
                    },
                    "block": {
                        "uri": "/me/block/3255081",
                        "options": [
                            "PUT",
                            "DELETE"
                        ],
                        "added": false,
                        "added_time": null
                    },
                    "report": {
                        "uri": "/users/3255081/report",
                        "options": [
                            "POST"
                        ],
                        "reason": [
                            "inappropriate avatar",
                            "spammy",
                            "bad videos",
                            "creepy",
                            "not playing nice",
                            "impersonation"
                        ]
                    }
                }
            },
            "resource_key": "51d1c7dba884e408d03c71aa37f0477715517d22",
            "account": "pro"
        },
        {
            "uri": "/users/64177650",
            "name": "DSN Digital Sport Network",
            "link": "https://vimeo.com/user64177650",
            "location": "",
            "bio": null,
            "created_time": "2017-03-15T08:55:38+00:00",
            "pictures": {
                "uri": "/users/64177650/pictures/18463331",
                "active": true,
                "type": "custom",
                "sizes": [
                    {
                        "width": 30,
                        "height": 30,
                        "link": "https://i.vimeocdn.com/portrait/18463331_30x30"
                    },
                    {
                        "width": 75,
                        "height": 75,
                        "link": "https://i.vimeocdn.com/portrait/18463331_75x75"
                    },
                    {
                        "width": 100,
                        "height": 100,
                        "link": "https://i.vimeocdn.com/portrait/18463331_100x100"
                    },
                    {
                        "width": 300,
                        "height": 300,
                        "link": "https://i.vimeocdn.com/portrait/18463331_300x300"
                    },
                    {
                        "width": 72,
                        "height": 72,
                        "link": "https://i.vimeocdn.com/portrait/18463331_72x72"
                    },
                    {
                        "width": 144,
                        "height": 144,
                        "link": "https://i.vimeocdn.com/portrait/18463331_144x144"
                    },
                    {
                        "width": 216,
                        "height": 216,
                        "link": "https://i.vimeocdn.com/portrait/18463331_216x216"
                    },
                    {
                        "width": 288,
                        "height": 288,
                        "link": "https://i.vimeocdn.com/portrait/18463331_288x288"
                    },
                    {
                        "width": 360,
                        "height": 360,
                        "link": "https://i.vimeocdn.com/portrait/18463331_360x360"
                    }
                ],
                "resource_key": "f3cdcbb6806eccc2797d774c09471982ec18e708"
            },
            "websites": [
                {
                    "name": "Digital Sport Network",
                    "link": "http://www.digital-sport-network.com/",
                    "description": "Digital Sport Network - sports video replay and streaming"
                }
            ],
            "metadata": {
                "connections": {
                    "albums": {
                        "uri": "/users/64177650/albums",
                        "options": [
                            "GET"
                        ],
                        "total": 49
                    },
                    "appearances": {
                        "uri": "/users/64177650/appearances",
                        "options": [
                            "GET"
                        ],
                        "total": 0
                    },
                    "channels": {
                        "uri": "/users/64177650/channels",
                        "options": [
                            "GET"
                        ],
                        "total": 0
                    },
                    "feed": {
                        "uri": "/users/64177650/feed",
                        "options": [
                            "GET"
                        ]
                    },
                    "followers": {
                        "uri": "/users/64177650/followers",
                        "options": [
                            "GET"
                        ],
                        "total": 64
                    },
                    "following": {
                        "uri": "/users/64177650/following",
                        "options": [
                            "GET"
                        ],
                        "total": 0
                    },
                    "groups": {
                        "uri": "/users/64177650/groups",
                        "options": [
                            "GET"
                        ],
                        "total": 0
                    },
                    "likes": {
                        "uri": "/users/64177650/likes",
                        "options": [
                            "GET"
                        ],
                        "total": 0
                    },
                    "membership": {
                        "uri": "/users/64177650/membership/",
                        "options": [
                            "PATCH"
                        ]
                    },
                    "moderated_channels": {
                        "uri": "/users/64177650/channels?filter=moderated",
                        "options": [
                            "GET"
                        ],
                        "total": 1
                    },
                    "portfolios": {
                        "uri": "/users/64177650/portfolios",
                        "options": [
                            "GET"
                        ],
                        "total": 0
                    },
                    "videos": {
                        "uri": "/users/64177650/videos",
                        "options": [
                            "GET"
                        ],
                        "total": 13409
                    },
                    "shared": {
                        "uri": "/users/64177650/shared/videos",
                        "options": [
                            "GET"
                        ],
                        "total": 0
                    },
                    "pictures": {
                        "uri": "/users/64177650/pictures",
                        "options": [
                            "GET",
                            "POST"
                        ],
                        "total": 1
                    }
                },
                "interactions": {
                    "follow": {
                        "added": false,
                        "added_time": null,
                        "uri": "/users/3400243/following/64177650",
                        "options": [
                            "GET",
                            "PUT",
                            "DELETE"
                        ]
                    },
                    "block": {
                        "uri": "/me/block/64177650",
                        "options": [
                            "PUT",
                            "DELETE"
                        ],
                        "added": false,
                        "added_time": null
                    },
                    "report": {
                        "uri": "/users/64177650/report",
                        "options": [
                            "POST"
                        ],
                        "reason": [
                            "inappropriate avatar",
                            "spammy",
                            "bad videos",
                            "creepy",
                            "not playing nice",
                            "impersonation"
                        ]
                    }
                }
            },
            "resource_key": "0181f8d747ae3d6068d18bf47ad8c5673ad71ce1",
            "account": "pro_unlimited"
        },
        {
            "uri": "/users/51041773",
            "name": "Sport Projects",
            "link": "https://vimeo.com/user51041773",
            "location": "",
            "bio": null,
            "created_time": "2016-04-12T08:16:37+00:00",
            "pictures": {
                "uri": null,
                "active": false,
                "type": "default",
                "sizes": [
                    {
                        "width": 30,
                        "height": 30,
                        "link": "https://i.vimeocdn.com/portrait/defaults-blue_30x30.png"
                    },
                    {
                        "width": 75,
                        "height": 75,
                        "link": "https://i.vimeocdn.com/portrait/defaults-blue_75x75.png"
                    },
                    {
                        "width": 100,
                        "height": 100,
                        "link": "https://i.vimeocdn.com/portrait/defaults-blue_100x100.png"
                    },
                    {
                        "width": 300,
                        "height": 300,
                        "link": "https://i.vimeocdn.com/portrait/defaults-blue_300x300.png"
                    },
                    {
                        "width": 72,
                        "height": 72,
                        "link": "https://i.vimeocdn.com/portrait/defaults-blue_72x72.png"
                    },
                    {
                        "width": 144,
                        "height": 144,
                        "link": "https://i.vimeocdn.com/portrait/defaults-blue_144x144.png"
                    },
                    {
                        "width": 216,
                        "height": 216,
                        "link": "https://i.vimeocdn.com/portrait/defaults-blue_216x216.png"
                    },
                    {
                        "width": 288,
                        "height": 288,
                        "link": "https://i.vimeocdn.com/portrait/defaults-blue_288x288.png"
                    },
                    {
                        "width": 360,
                        "height": 360,
                        "link": "https://i.vimeocdn.com/portrait/defaults-blue_360x360.png"
                    }
                ],
                "resource_key": "06cd312fcc3908e2d839aeb00ccaaf434acb0859"
            },
            "websites": [],
            "metadata": {
                "connections": {
                    "albums": {
                        "uri": "/users/51041773/albums",
                        "options": [
                            "GET"
                        ],
                        "total": 0
                    },
                    "appearances": {
                        "uri": "/users/51041773/appearances",
                        "options": [
                            "GET"
                        ],
                        "total": 0
                    },
                    "channels": {
                        "uri": "/users/51041773/channels",
                        "options": [
                            "GET"
                        ],
                        "total": 0
                    },
                    "feed": {
                        "uri": "/users/51041773/feed",
                        "options": [
                            "GET"
                        ]
                    },
                    "followers": {
                        "uri": "/users/51041773/followers",
                        "options": [
                            "GET"
                        ],
                        "total": 30
                    },
                    "following": {
                        "uri": "/users/51041773/following",
                        "options": [
                            "GET"
                        ],
                        "total": 0
                    },
                    "groups": {
                        "uri": "/users/51041773/groups",
                        "options": [
                            "GET"
                        ],
                        "total": 0
                    },
                    "likes": {
                        "uri": "/users/51041773/likes",
                        "options": [
                            "GET"
                        ],
                        "total": 0
                    },
                    "membership": {
                        "uri": "/users/51041773/membership/",
                        "options": [
                            "PATCH"
                        ]
                    },
                    "moderated_channels": {
                        "uri": "/users/51041773/channels?filter=moderated",
                        "options": [
                            "GET"
                        ],
                        "total": 0
                    },
                    "portfolios": {
                        "uri": "/users/51041773/portfolios",
                        "options": [
                            "GET"
                        ],
                        "total": 0
                    },
                    "videos": {
                        "uri": "/users/51041773/videos",
                        "options": [
                            "GET"
                        ],
                        "total": 580
                    },
                    "shared": {
                        "uri": "/users/51041773/shared/videos",
                        "options": [
                            "GET"
                        ],
                        "total": 0
                    },
                    "pictures": {
                        "uri": "/users/51041773/pictures",
                        "options": [
                            "GET",
                            "POST"
                        ],
                        "total": 0
                    }
                },
                "interactions": {
                    "follow": {
                        "added": false,
                        "added_time": null,
                        "uri": "/users/3400243/following/51041773",
                        "options": [
                            "GET",
                            "PUT",
                            "DELETE"
                        ]
                    },
                    "block": {
                        "uri": "/me/block/51041773",
                        "options": [
                            "PUT",
                            "DELETE"
                        ],
                        "added": false,
                        "added_time": null
                    },
                    "report": {
                        "uri": "/users/51041773/report",
                        "options": [
                            "POST"
                        ],
                        "reason": [
                            "inappropriate avatar",
                            "spammy",
                            "bad videos",
                            "creepy",
                            "not playing nice",
                            "impersonation"
                        ]
                    }
                }
            },
            "resource_key": "78ccbc77d62d40d02540902295baf99f2a6dc35d",
            "account": "plus"
        }
    ]
}
